lezca_maquina_de_estado/simulation/qsim/control_tiempo.msim.vcd
$comment
	File created using the following command:
		vcd file control_tiempo.msim.vcd -direction
$end
$date
	Mon Nov 06 16:49:15 2023
$end
$version
	ModelSim Version 10.1d
$end
$timescale
	1ps
$end
$scope module control_tiempo_vlg_vec_tst $end
$var reg 1 ! clock $end
$var reg 1 " R2 $end
$var reg 1 # reset_A $end
$var reg 1 $ S $end
$var wire 1 % contador $end
$var wire 1 & Resultado $end
$var wire 1 ' stop_and_go $end
$var wire 1 ( sampler $end
$scope module i1 $end
$var wire 1 ) gnd $end
$var wire 1 * vcc $end
$var wire 1 + unknown $end
$var tri1 1 , devclrn $end
$var tri1 1 - devpor $end
$var tri1 1 . devoe $end
$var wire 1 / clock~input_o $end
$var wire 1 0 clock~inputclkctrl_outclk $end
$var wire 1 1 stop_and_go~output_o $end
$var wire 1 2 Resultado~output_o $end
$var wire 1 3 contador~output_o $end
$var wire 1 4 reset_A~input_o $end
$var wire 1 5 R2~input_o $end
$var wire 1 6 reg_fstate.vuelta_3~1_combout $end
$var wire 1 7 reg_fstate.marcha~1_combout $end
$var wire 1 8 reg_fstate.marcha~2_combout $end
$var wire 1 9 fstate.marcha~q $end
$var wire 1 : reg_fstate.vuelta_0~0_combout $end
$var wire 1 ; fstate.vuelta_0~q $end
$var wire 1 < reg_fstate.vuelta_1~0_combout $end
$var wire 1 = fstate.vuelta_1~q $end
$var wire 1 > reg_fstate.vuelta_2~0_combout $end
$var wire 1 ? fstate.vuelta_2~q $end
$var wire 1 @ S~input_o $end
$var wire 1 A reg_fstate.vuelta_3~0_combout $end
$var wire 1 B reg_fstate.vuelta_3~2_combout $end
$var wire 1 C fstate.vuelta_3~q $end
$var wire 1 D reg_fstate.Parar~0_combout $end
$var wire 1 E reg_fstate.Parar~1_combout $end
$var wire 1 F reg_fstate.Parar~2_combout $end
$var wire 1 G fstate.Parar~q $end
$var wire 1 H stop_and_go~0_combout $end
$var wire 1 I reg_fstate.marcha~0_combout $end
$var wire 1 J contador~0_combout $end
$upscope $end
$upscope $end
$enddefinitions $end
#0
$dumpvars
0!
0"
1#
1$
0%
1&
0'
x(
0)
1*
x+
1,
1-
1.
0/
00
01
12
03
14
05
16
07
08
09
0:
0;
0<
0=
0>
0?
1@
0A
0B
0C
1D
0E
0F
0G
0H
1I
1J
$end
#10000
1!
1/
10
0(
#20000
1"
0!
15
0/
00
1(
0D
18
06
1F
#30000
1!
1/
10
0(
1G
19
08
1E
0I
1H
0F
02
11
0&
1'
#40000
0"
0!
05
0/
00
1(
1F
17
16
18
#50000
1!
1/
10
0(
#60000
0$
0!
0@
0/
00
1(
1:
07
08
#70000
1!
1/
10
0(
1;
09
1<
0:
0J
13
1%
#80000
0!
0/
00
1(
#90000
1!
1/
10
0(
1=
0;
1>
0<
#100000
1$
0!
1@
0/
00
1(
0>
1<
#110000
1!
1/
10
0(
#120000
0!
0/
00
1(
#130000
1!
1/
10
0(
#140000
0!
0/
00
1(
#150000
1!
1/
10
0(
#160000
0!
0/
00
1(
#170000
1!
1/
10
0(
#180000
0!
0/
00
1(
#190000
1!
1/
10
0(
#200000
0!
0/
00
1(
#210000
1!
1/
10
0(
#220000
0!
0/
00
1(
#230000
1!
1/
10
0(
#240000
0!
0/
00
1(
#250000
0$
1!
0@
1/
10
0(
1>
0<
#260000
0!
0/
00
1(
#270000
1!
1/
10
0(
1?
0=
1B
0>
#280000
0!
0/
00
1(
#290000
1$
1!
1@
1/
10
0(
0B
1>
1C
0?
1A
0E
0>
1B
#300000
0!
0/
00
1(
#310000
1!
1/
10
0(
#320000
0!
0/
00
1(
#330000
1!
1/
10
0(
#340000
0!
0/
00
1(
#350000
1!
1/
10
0(
#360000
0!
0/
00
1(
#370000
1!
1/
10
0(
#380000
0$
0!
0@
0/
00
1(
1D
0A
0F
0B
#390000
1!
1/
10
0(
0G
0C
1J
1I
0H
03
12
01
0%
1&
0'
#400000
0!
0/
00
1(
#410000
1!
1/
10
0(
#420000
1$
0!
1@
0/
00
1(
#430000
1!
1/
10
0(
#440000
0!
0/
00
1(
#450000
1!
1/
10
0(
#460000
0!
0/
00
1(
#470000
1!
1/
10
0(
#480000
0!
0/
00
1(
#490000
1!
1/
10
0(
#500000
0!
0/
00
1(
#510000
0$
1!
0@
1/
10
0(
#520000
0!
0/
00
1(
#530000
1!
1/
10
0(
#540000
0!
0/
00
1(
#550000
1!
1/
10
0(
#560000
0!
0/
00
1(
#570000
1$
1!
1@
1/
10
0(
#580000
0!
0/
00
1(
#590000
1!
1/
10
0(
#600000
0!
0/
00
1(
#610000
1!
1/
10
0(
#620000
0!
0/
00
1(
#630000
1!
1/
10
0(
#640000
0!
0/
00
1(
#650000
1!
1/
10
0(
#660000
0!
0/
00
1(
#670000
1!
1/
10
0(
#680000
0!
0/
00
1(
#690000
1!
1/
10
0(
#700000
0!
0/
00
1(
#710000
1!
1/
10
0(
#720000
0!
0/
00
1(
#730000
1!
1/
10
0(
#740000
0!
0/
00
1(
#750000
1!
1/
10
0(
#760000
0!
0/
00
1(
#770000
1!
1/
10
0(
#780000
0!
0/
00
1(
#790000
1!
1/
10
0(
#800000
0!
0/
00
1(
#810000
1!
1/
10
0(
#820000
0!
0/
00
1(
#830000
1!
1/
10
0(
#840000
0!
0/
00
1(
#850000
1!
1/
10
0(
#860000
0!
0/
00
1(
#870000
1!
1/
10
0(
#880000
0!
0/
00
1(
#890000
1!
1/
10
0(
#900000
0!
0/
00
1(
#910000
1!
1/
10
0(
#920000
0!
0/
00
1(
#930000
1!
1/
10
0(
#940000
0!
0/
00
1(
#950000
1!
1/
10
0(
#960000
0!
0/
00
1(
#970000
1!
1/
10
0(
#980000
0!
0/
00
1(
#990000
1!
1/
10
0(
